<?xml version="1.0" encoding="UTF-8"?>
<session version="1.0">
<refactoring comment="Delete resource &apos;klausurvorbereitung&apos;" deleteContents="false" description="Delete resource &apos;klausurvorbereitung&apos;" element1="/klausurvorbereitung" flags="7" id="org.eclipse.ltk.core.refactoring.delete.resources" resources="1" stamp="1547044761609"/>
</session>