<?xml version="1.0" encoding="UTF-8"?>
<session version="1.0">
<refactoring comment="Move element &apos;fibonacciRekusriv.java&apos; to &apos;uniVerschiedenes/src/RekursiveAufgaben&apos;&#x0D;&#x0A;- Original project: &apos;uniVerschiedenes&apos;&#x0D;&#x0A;- Destination element: &apos;uniVerschiedenes/src/RekursiveAufgaben&apos;&#x0D;&#x0A;- Original element: &apos;fibonacciRekusriv.java&apos;&#x0D;&#x0A;- Update references to refactored element" description="Move compilation unit" destination="/src&lt;RekursiveAufgaben" element1="/src&lt;{fibonacciRekusriv.java" files="0" flags="589830" folders="0" id="org.eclipse.jdt.ui.move" policy="org.eclipse.jdt.ui.moveResources" qualified="false" references="true" stamp="1547201111694" units="1" version="1.0"/>
</session>