<?xml version="1.0" encoding="UTF-8"?>
<session version="1.0">
<refactoring accessors="true" comment="Delete element from project &apos;thinkjava&apos;&#x0D;&#x0A;- Original project: &apos;thinkjava&apos;&#x0D;&#x0A;- Original element: &apos;thinkjava/src/chapter2&apos;" description="Delete element" element1="/src&lt;chapter2" elements="1" flags="589830" id="org.eclipse.jdt.ui.delete" resources="0" stamp="1540744228823" subPackages="false" version="1.0"/>
</session>